#use wml::debian::common_translation
#include "$(ENGLISHDIR)/distrib/pre-installed.defs"

############################################
## Argentina (.ar)
############################################

<country code="ar" name="<country-name AR>">

<vendor name="SETI Soluciones Inform&aacute;ticas"
  country="ar"
  URL="http://www.setionline.com.ar"
  email="ventas@setionline.com.ar"
  phone="+54 (345) 4218174"
  ship="no"
  smail="SETI Soluciones Inform&aacute;ticas<br />
  1&ordm; de Mayo 161<br />
  (CP 3200) Concordia<br />
  Entre R&iacute;os, <country-name AR>" />

</country>


############################################
## Australia (.au)
############################################

<country code="au" name="<country-name AU>">

#<vendor name="Great Southern Computer Services"
#  country="au"
#  URL="http://gscomputers.com.au"
#  email="support@gscomputers.com.au"
#  phone="(08) 98217306"
#  fax="(08) 98217306"
#  ship="no"
#  smail="Great Southern Computer Services<br />
#  P.O. Box 901<br />
#  Katanning, WA, 6317<br />
#  <country-name AU>" />

<vendor name="Linux Now"
  country="au"
  URL="https://www.linuxnow.com.au/"
  email="sales@linuxnow.com.au"
  phone="(03) 9859 8768"
  fax="(03) 9803 4936"
  ship="no"
  <smail="Linux Now<br />
Office 6, Level 1<br />
70 Doncaster Rd<br />
Balwyn North, Vic, 3104<br />
<country-name AU>" />

</country>


############################################
## Austria (.at)
############################################

#<country code="at" name="<country-name AT>">

#<vendor name="G-TEC / Open Source Solutions"
#  country="at"
#  URL="http://www.g-tec.co.at"
#  email="office@g-tec.co.at"
#  phone="+43 316 890235-0"
#  fax="+43 316 890236"
#  ship="yes"
#  smail="Fichtestrasse 66-68<br />
#  A-8020 Graz<br />
#  <country-name AT>" />

#</country>


############################################
## Belgium (.be)
############################################

<country code="be" name="<country-name BE>">

<vendor name="BeezNest Belgium"
  country="be"
  URL="http://www.beeznest.net"
  email="info@beeznest.net"
  phone="+32 2 6620793"
  ship="europe"
  smail="BeezNest Belgium<br />
  av. de la Verrerie 136<br />
  1190 Brussels" />

<vendor name="Linux-service.be"
  country="be"
  URL="http://linux-service.be/"
  email="info@linux-service.be"
  phone="+32 9 3908078"
  fax="+32 93846765"
  smail="Linux-service.be<br/>
Grenadierslaan 65<br/>
B-9890 Gavere" />

</country>


############################################
## Brazil (.br)
############################################

#<country code="br" name="<country-name BR>">

#<vendor name="Nautilus ISP (Pelc Serv. de Com. Ltda)"
#  country="br"
#  URL="http://www.nautilus.com.br/"
#  email="suporte@nautilus.com.br"
#  phone="(55) 91-2114777"
#  phone="(55) 91-40054777"
#  fax="(55) 91-2761646" />

#</country>


############################################
## Canada (.ca)
############################################

<country code="ca" name="<country-name CA>">

<vendor name="GEV Computers"
  country="ca"
  URL="http://www.gev-t.com"
  email="sales@gev-t.com"
  ship="yes"
  smail="GEV<br />
  P.O.Box 83<br />
  Welland, ON, L3B 5N9<br />
  <country-name CA>" />

<vendor name="JCCSS (Jeremy Carter's Computer Service and Sales)"
  country="ca"
  URL="https://jccss.ca/"
  email="support@jccss.ca"
  phone="+1-613-263-0844"
  ship="yes" />

#<vendor name="NExcess Technologies inc."
#  country="ca"
#  URL="https://nexcess.ca/"
#  email="info@nexcess.ca"
#  phone="+1 (418) 558-5169"
#  ship="yes"
#  smail="NExcess Technologies inc.<br />
#  161 rue Calixta-Laberge<br />
#  Boischatel (Québec)  Canada G0A 1H0" />

<vendor name="Precise-ITC, Inc."
  country="ca"
  URL="http://www2.precise-itc.com/x8"
  email="sales@precise-itc.com"
  phone="(613) 212-1410"
  ship="yes"
  smail="1 Stafford Road Est, Suite 228<br />
Ottawa ON<br />
Canada K2H 1B9" />

<vendor name="Smellems Solutions"
  country="ca"
 URL="https://smellems.github.io"
 email="info@smellems.com"
 phone="819-918-0310"
 ship="no"
 smail="Smellems Solutions<br />
Gatineau, Qu&eacute;bec<br />
Ottawa, Ontario<br />
<country-name CA>" />

</country>


############################################
## Costa Rica (.cr)
############################################

<country code="cr" name="<country-name CR>">

<vendor name="Luis-Alberto Montero"
  country="cr"
  URL="http://www.bravenetworks.net/"
  email="bravenetworks@gmail.com"
  phone="011 (506) 8371 1874"
  ship="yes"
  smail="Luis-Alberto Montero<br />
Av 10 Calle 31 # 3110<br />
SJO<br />
<country-name CR>" />

</country>


############################################
## Czech Republic (.cz)
############################################

<country code="cz" name="<country-name CZ>">

<vendor name="FinalTek.com"
  country="cz"
  URL="http://www.finaltek.com"
  email="admin@finaltek.com"
  phone="+42 0603167825"
  smail="FinalTek.com - Zden&#x11B;k Klauda<br />
Nov&aacute; 225/1<br />
250 64 M&#x11B;&scaron;ice<br />
<country-name CZ>" />

<vendor name="Netsektor s.r.o"
  country="cz"
  URL="http://www.netsektor.net/"
  email="info@netsektor.net"
  phone="+42 0724 573 528"
  ship="yes" />

<vendor name="opensource company"
  country="cz"
  URL="https://www.open-source-company.de/"
  email="contact@opensource-company.de"
  phone="+420 46 330 59 60"
  ship="yes"
  smail="opensource company<br />
Alexander Hu<br />
Skuhrov 4<br />
CZ 56002 &#x10C;esk&aacute; T&#x159;ebov&aacute;" />

</country>


############################################
## Denmark (.dk)
############################################

#<country code="dk" name="<country-name DK>">

#<vendor name="C. Iversen Konsult"
#  country="dk"
#  URL="http://www.civersen.dk"
#  email="civ@civersen.dk"
#  phone="+45 74 69 39 47"
#  fax="+45 69 66 10 39"
#  ship="yes"
#  smail="C. Iversen Konsult<br />
#&Oslash;stergade 5, st, DK-6230 R&oslash;dekro" />

#</country>


############################################
## Finland (.fi)
############################################

#<country code="fi" name="<country-name FI>">

#<vendor name="Linux Solutions"
#  country="fi"
#  URL="http://www.linuxsolutions.fi/"
#  email="info@linuxsolutions.fi"
#  phone="+358 505118181"
#  ship="yes"
#  smail="Linux Solutions<br/>
#PB 158<br/>
#65101 Vaasa<br/>
#<country-name FI>" />

#</country>


############################################
## France (.fr)
############################################

<country code="fr" name="<country-name FR>">

#<vendor name="DeCAD"
#  country="fr"
#  URL="http://www.decad.fr/"
#  email="debian@decad.fr"
#  phone="+33 4 93 92 34 24"
#  fax="+33 4 93 92 87 70"
#  ship="no"
#  smail="DeCAD<br/>
#11, rue de Paris<br/>
#06000 Nice" />

#<vendor name="ADSiS"
#  country="fr"
#  URL="http://www.adsis.fr/"
#  email="contact@adsis.fr"
#  phone="+33 0 450 226 313"
#  fax="+33 0 450 229 216"
#  ship="yes"
#  smail="ADSiS<br/>
#9, impasse des fusains<br/>
#74960 MEYTHET" />

# last check: 2019/07/15 mail to switch from accelibreinfo to Hypra
<vendor name="Hypra"
  country="fr"
 URL="http://hypra.fr"
 email="contact@hypra.fr"
 phone="+331 84 73 06 61"
 ship="yes" 
 smail="Hypra<br />
 21B rue du Simplon<br />
 75018 Paris<br />
 <country-name FR>" />

<vendor name="Micr-OS.com"
  country="fr"
 URL="http://www.micr-os.com"
 email="technique@micr-os.com"
 phone="+33 4 91 47 89 84"
 fax="+33 4 91 47 21 77"
 ship="no"
 smail="Micr-OS.com<br />
 29, 31 Boulevard Eug&egrave;ne Pierre<br />
 13005 Marseille<br />
 <country-name FR>" />

<vendor name="Novatux"
  country="fr"
 URL="http://novatux.com/"
 email="debian@novatux.com"
 phone="+33 3 23 97 09 87"
 ship="europe"
 smail="Novatux<br />
 1, impasse du Moulin<br />
 02140 ROGNY<br />
<country-name FR>" />

<vendor name="Ordi-Solidaire"
  country="fr"
 URL="http://www.ordi-solidaire.fr"
 email="contact@ordi-solidaire.fr"
 phone="+33 4 66 86 01 58"
 ship="yes"
 smail="Ordi-Solidaire - Cévennes Libres<br />
 Quartiers Les Plots<br />
 30960 Le Martinet<br />
<country-name FR>" />

#<vendor name="Proformatique"
#  country="fr"
#  URL="http://www.proformatique.com/"
#  email="contact@proformatique.com"
#  phone="+33 1 41 38 99 60"
#  fax="+33 1 41 38 99 70"
#  ship="no"
#  smail="Proformatique<br/>
#67 rue Voltaire<br/>
#92800 Puteaux" />

</country>


############################################
## Germany (.de)
############################################

<country code="de" name="<country-name DE>">

<vendor name="bcs kommunikationsl&ouml;sungen"
  country="de"
  URL="https://www.b-c-s.de/"
  email="info@b-c-s.de"
  phone="+49 345- 298490"
  fax="+49 345 - 2984922"
  ship="yes"
  smail="bcs kommunikationsl&ouml;sungen<br/>
Harz 51<br/>
D-06108 Halle" />

<vendor name="Bj&ouml;rn Hahnefeld IT"
  country="de"
 URL="https://www.hahnefeld.de/"
 email="info@hahnefeld.de"
 phone="+49 800 424633353"
 fax="+49 700 424633353"
 ship="no"
 smail="Bj&ouml;rn Hahnefeld InformationsTechnologien<br />
Amberger Str. 60<br />
D-93057 Regensburg<br />
<country-name DE>" />

<vendor name="Br&uuml;ck-Computer"
  country="de"
  URL="http://www.brueck-computer.de/"
  email="info@brueck-computer.de"
  phone="+49 6455 911900"
  ship="no"
  smail="Br&uuml;ck-Computer<br/>
Inh. Andreas Br&uuml;ck<br/>
Bergstrasse 4<br/>
D-35114 Haina-L&ouml;hlbach" />

<vendor name="DELTA Computer Products GmbH"
  country="de"
  URL="https://www.deltacomputer.com/"
  email="info@deltacomputer.de"
  phone="+49403006720"
  fax="+494030067211"
  ship="yes"
  smail="DELTA Computer Products GmbH<br />
Roentgenstr. 4<br />
21465 Reinbek, Germany" />

#<vendor name="Imap4web"
#  country="de"
#  URL="http://www.imap4web.de/"
#  email="info@imap4web.de"
#  phone="+49 7154 - 155 165"
#  fax="+49 7154 - 15 63 65"
#  ship="no"
#  smail="Imap4web<br/>
#Lange Strasse 44<br/>
#D-70806 Kornwestheim" />

<vendor name="IT-Service Sebastian Reimers"
  country="de"
  URL="https://miete-admin.de/"
  email="support@miete-admin.de"
  phone="0174/7417901"
  ship="no"
  smail="IT-Service Sebastian Reimers<br>
Am Blanken Boom 14<br>
D-32369 Rahden" />

<vendor name="LinSoft GmbH"
  country="de"
  URL="https://www.linsoft.de/"
  email="info@linsoft.de"
  phone="+49 (0)6120 972330"
  fax="+49 (0)6120 972368"
  ship="no"
  smail="LinSoft GmbH<br />
Feldstra&szlig;e 20<br />
DE-65326 Aarbergen" />

<vendor name="MSD Computersysteme GmbH"
  country="de"
  URL="http://www.msdnet.de/"
  email="info@msdnet.de"
  phone="+49-211-311608-0"
  fax="+49-211-311608-19"
  ship="yes"
  smail="MSD Computersysteme GmbH<br />
Martinstrasse 47-55<br />
D-40223 Duesseldorf" />

<vendor name="ROBBICOM.de - Jörg Barisch" country="de"
  URL="https://www.robbicom.de/"
  email="info@robbicom.de"
  phone="+49 5257 501965"
  fax="+49 5257 501966"
  ship="yes"
  smail="ROBBICOM.de<br />
  Stettiner Str. 4<br />
  D-33161 H&ouml;velhof" />

<vendor name="opensource company"
  country="de"
 URL="https://www.open-source-company.de/"
 email="contact@opensource-company.de"
 phone="+49 9373 59 70 10"
 ship="yes"
 smail="opensource company<br />
Alexander Hu<br />
Skuhrov 4<br />
CZ 56002 &#x10C;esk&aacute; T&#x159;ebov&aacute;" />
### the vendor has requested to be listed both in Germany and Czech
### Republic as he's located on the border and he sell mostly to Germans

#<vendor name="Sascha Schmidt Datentechnik"
#  country="de"
#  URL="http://www.saschaschmidt.de"
#  email="info@saschaschmidt.de"
#  phone="+49 1577 3090158"
#  ship="no"
#  smail="Sascha Schmidt Datentechnik <br />
#  Zollernstraße 5<br />
#  D-72250 Freudenstadt" />

<vendor name="Sanux.de"
  country="de"
  URL="https://www.sanux.de/"
  email="linux@sanux.de"
  phone="+49 3464 - 518 302"
  fax="+49 3464 - 518 304"
  ship="yes"
  smail="Sanux.de<br />
Inh. Jerome Reinert<br />
Sotterhaeuser Weg 3<br />
D-06526 Sangerhausen" />

<vendor name="Solo Entertainment e.K."
  country="de"
  URL="http://www.solo-entertainment.de"
  email="info@solo-entertainment.de"
  phone="+49 821 79579670"
  fax="+49 821 88455230"
  ship="yes"
  smail="Solo Entertainment e.K.<br />
  Inhaber: Sebastian Sedlbauer<br />
  Nesselwanger Stra&szlig;e 1<br />
  86163 Augsburg" />

<vendor name="Thomas-Krenn.AG"
  country="de"
  URL="https://www.thomas-krenn.com/"
  email="info@thomas-krenn.com"
  phone="+49 8551 9150-0"
  fax="+49 8551 9150-55"
  ship="europe"
  smail="Thomas-Krenn.AG <br />
  Speltenbach-Stein&auml;cker 1 <br />
  94078 Freyung" />

<vendor name="tuxad.com"
  country="de"
  URL="http://www.tuxad.com"
  email="debian-preinstall@tuxad.com"
  phone="+49-5221-9249753"
  ship="no"
  smail="EDV Frank Bergmann<br />
  Pödinghauser Str. 5<br />
  D-32051 Herford" />

<vendor name="Xtops.DE"
  country="de"
  URL="http://xtops.de/"
  email="info@xtops.de"
  phone="+49 (0)30 349 53 86"
  fax="+49 (0)30 233 63 689"
  ship="yes"
  smail="Xtops.DE - Werner Heuser<br />
Granitzstr. 26<br />
D-13189 Berlin" />

<vendor name="Hamburgnet"
  country="de"
  URL="https://www.hamburgnet.com/de/"
  email="sales@hamburgnet.de"
  phone="+49 40 881 449970"
  fax="+49 40 881 44 9999"
  ship="yes"
  smail="Hamburgnet<br />
Kattunbleiche 18<br />
D-22041 Hamburg" />
</country>


############################################
## Greece (.gr)
############################################

# <country code="gr" name="<country-name GR>">

#<vendor name="Step"
#  country="gr"
#  URL="http://www.step.gr/"
#  email="debian@step.gr"
#  phone="210-4181239"
#  fax="210-4184391"
#  ship="no"
#  smail="Step<br/>
#36 Akti Moutsopoulou str.<br/>
#18536 Piraeus" />

#</country>


############################################
## Hungary (.hu)
############################################

<country code="hu" name="<country-name HU>">

<vendor name="CYBINV CONSULTING Kft."
  country="hu"
  URL="https://www.professional-it-services.com/"
  email="info@professional-it-services.com"
  phone="+36 703811680"
  ship="yes" />

#  <vendor name="ENEXIS Informatics Ltd."
#  country="hu"
#  URL="http://www.enexis.hu/"
#  email="info@enexis.hu"
#  phone="+36-70/339-1197"
#  ship="no" />

#<vendor name="AC-INFO Ltd."
#  country="hu"
#  URL="http://acinfo.hu/"
#  email="linux@acinfo.hu"
#  phone="+36-70-242-9853"
#  ship="no" />

<vendor name="INTEGRITY Ltd."
  country="hu"
  URL="https://integrity.hu/"
  email="office@integrity.hu"
  phone="+36 1-450-2660"
  fax="+36 1-412-0483"
  ship="no"
  smail="INTEGRITY Ltd.<br />
  1132 Budapest, Victor Hugo u. 18-22" />

</country>


############################################
## India (.in)
############################################

<country code="in" name="<country-name IN>">

<vendor name="IB SERVICES"
  country="in"
  URL="https://ibservice.wordpress.com/"
  email="ibmanoj@gmail.com"
  phone="91 484 6541112"
  ship="no"
  smail="IB SERVICES<br />
  Sadhana Yoga Centre<br />
  Desom (Kunnumpuram)<br />
  Aluva<br />
  KERALA, INDIA-683103" />

<vendor name="SYSWORKS"
  country="in"
  URL="https://sysworks.in"
  email="info@sysworks.org"
  phone="+91 99951 98869"
  ship="no"
  smail="Selman Chambers<br />
Door No.41/517,1st Floor<br />
A.L.Jacob Road,<br />
Cochin-682035" />

<vendor name="Zyxware Technologies"
  country="in"
  URL="http://www.zyxware.com"
  email="info@zyxware.com"
  phone="+91 9446 06 9446"
  ship="no"
  smail="Zyxware Technologies<br />
3/2457(6)<br />
TKD Road, Marappalam<br />
Pattom P. O., Trivandrum<br />
Kerala - 695004, <country-name IN>" />

</country>


############################################
## Italy (.it)
############################################

<country code="it" name="<country-name IT>">

#<vendor name="PROSA Progettazione Sviluppo Aperto"
#  country="it"
#  URL="http://www.prosa.it/"
#  email="sales@prosa.it"
#  phone="+39 049 87 74 950"
#  fax="+39 049 87 85 854"
#  ship="no"
#  smail="via Degli Zabarella, 3<br />
#       35121, Padova (<country-name IT>)" />

# <vendor name="Aptadigital srl"
#  country="it"
# URL="http://www.aptadigital-sistemi.it"
# email="info@aptadigital.it"
# phone="+39 045 8345086"
# fax="+39 045 2109229"
# ship="yes"
# smail="Aptadigital srl<br />
# Via Podgora 1 <br />
# 37217 Verona" />

<vendor name="Binario Etico"
  country="it"
 URL="https://www.binarioetico.it/servizi/officina-informatica.html"
 email="info@binarioetico.it"
 phone="+39 06 40800559"
 fax="+39 06 60523010"
 ship="no"
 smail="Binario Etico <br />
 via del Forte Tiburtino 98/100<br />
 000159 Roma" />

<vendor name="CR1PT0"
  country="it"
  URL="https://www.cr1pt0.com/"
  email="cr1pt0@yandex.com"
  ship="yes" />

#<vendor name="DGrent S.n.c."
#  country="it"
#  URL="http://www.dgrent.it/"
#  email="carlo@dgrent.it"
#  phone="011-4531151"
#  fax="011-4535350"
#  ship="no"
#  smail="DGrent S.n.c.<br/>
#Strada Comunale di Altessano, 146<br>
#CAP 10151<br/>
#TORINO" />

#<vendor name="Openhost"
#  country="it"
#  URL="http://www.openhost.it/"
#  email="info@openhost.it"
#  phone="+39059236594"
#  fax="+39059236594"
#  ship="no"
#  smail="
#Openhost<br />
#via Puccini 24<br />
#41100 Modena MO" />

#<vendor name="Modula Informatica Srl"
#  country="it"
#  URL="http://www.modula.net/"
#  email="info@modula.net"
#  phone="+39 0574 643599"
#  fax="+39 0574 540479"
#  ship="yes"
#  smail="Modula Informatica Srl<br/>
#Via dell'Alloro 33 F/G<br/>
#59100 Prato PO" />

<vendor name="Pretecno di Pretto Luca"
  country="it"
  URL="https://pretecno.it/"
  email="info@pretecno.it"
  phone="+39 04451922122"
  ship="no"
  smail="Pretecno di Pretto Luca<br />
 Viale Trieste 74 <br />
 36073 Cornedo Vicentino (VI)" />

<vendor name="SYE SERVIZI SRL"
  country="it"
  URL="http://www.sye.it"
  email="info@sye.it"
  phone="0112207947"
  fax="0112207947"
  ship="no"
  smail="SYE SERVIZI SRL<br />
  Via Noasca, 2<br />
  10148 Torino<br />
  <country-name IT>" />

#<vendor name="Technolab snc"
#  country="it"
#  URL="http://technolabsnc.it/site/store/index.php?route=common/home"
#  email="mail@technolabsnc.it"
#  phone="0573 36 61 77"
#  fax="0573 36 61 77"
#  ship="no"
#  smail="Technolab snc<br />
#Via di Porta al borgo, 15<br />
#51100 Pistoia<br />
#<country-name IT>" />

<vendor name="vaSystems di Vincenzo Argese"
  country="it"
  URL="https://www.informaticawebsystems.com/"
  email="info@informaticawebsystems.com"
  phone="+39 328 8437929"
  ship="no" />

#<vendor name="Vedova Computing di Emanuele Vedova"
#  country="it"
#  URL="http://www.vedova.it"
#  email="info@vedova.it"
#  phone="+39 031 4491005"
#  fax="+39 031 4491084"
#  ship="no"
#  smail="Vedova Computing di Emanuele Vedova<br />
#Via Acquanera, 26/D<br />
#22100 Como<br />
#<country-name IT>" />

<vendor name="YetOpen S.r.l."
  country="it"
  URL="http://www.yetopen.it/"
  email="commerciale@yetopen.it"
  phone="0341 220 205"
  fax="178 607 81 99"
  ship="no"
  smail="YetOpen S.r.l.<br/>
C.so E. Filiberto, 74<br/>
23900 Lecco" />

#<vendor name="HAPPY S.r.l."
#  country="it"
#  URL="http://www.happypc.it/"
#  email="service@happypc.it"
#  phone="0824 875465"
#  fax="0824 875115"
#  ship="no"
#  smail="HAPPY S.r.l.<br/>
#Via Collepiano, 20<br/>
#CAP 82030 Torrecuso (BN)" />

</country>


############################################
## Mexico (.mx)
############################################

<country code="mx" name="<country-name MX>">

<vendor name="Soft Gator S.A. de C.V."
  country="mx"
   URL="https://www.soft-gator.com/"
   email="services@soft-gator.com"
   phone="52 01 55 38688366"
   ship="yes"
   smail="Soft Gator S.A. de C.V.<br />
   Hda. Bilbao N0.58 Fracc. Urbi Hacienda Balboa,<br />
   Col. Atlanta Edo. Mexico C.P. 54740" />

#<vendor name="Linux OpenSource de M&eacute;xico S.A. de C.V."
#  country="mx"
#  URL="http://www.linuxopensource.com.mx/"
#  email="info@linuxopensource.com.mx"
#  phone="+52 (443) 312.8724"
#  fax="+52 (443) 317.3945"
#  ship="yes"
#  smail="
#Linux OpenSource<br/>
#Ray&oacute;n #523. Colonia Centro CP 58000<br/>
#Morelia, Michoac&aacute;n. M&eacute;xico" />

</country>


############################################
## Netherlands (.nl)
############################################

<country code="nl" name="<country-name NL>">

<vendor name="Firma van der Vlis"
  country="nl"
  URL="https://www.vandervlis.nl/"
  email="paul@vandervlis.nl"
  phone="+31 50 3131178"
  ship="yes"
  smail="Firma van der Vlis <br />
  Johan Willem Frisostraat 24 <br />
  9717 EP Groningen" />

<vendor name="SnaakSystems"
  country="nl"
  URL="https://laptopzelfsamenstellen.nl/"
  email="info@snaaksystems.nl"
  phone="+31 6 12 87 70 27"
  ship="yes"
  smail="SnaakSystems<br />
  Harmoleweg 4<br />
  7482 PL Haaksbergen"  />

  
# last check: added on 2020/05/18
<vendor name="Laptop with Linux"
  country="nl"
  URL="https://laptopwithlinux.com"
  email="info@laptopwithlinux.com"
  phone="+31 850606000"
  ship="yes"
  smail="Laptop with Linux<br />
  Demmersweg 86<br />
  7556BN Hengelo<br />
  Overijssel, The Netherlands"  />

</country>

############################################
## Poland (.pl)
############################################

<country code="pl" name="<country-name PL>">

<vendor name="kamlegIT"
  country="pl"
  URL="https://www.kamlegIT.pl/"
  email="kamlegit@gmail.com"
  phone="+48 17 784 41 43"
  ship="yes"
  smail="kamlegIT<br />
ul. Ks. Ja&#x142;owego 6A/24, 35-010<br />
Rzesz&oacute;w<br />
<country-name PL>" />

<vendor name="Scrascom Komputery Poleasingowe"
  country="pl"
  URL="https://scrascom.pl"
  email="wroclaw@scrascom.pl"
  ship="no" />

</country>


############################################
## Romania (.ro)
############################################

#<country code="ro" name="<country-name RO>">

#<vendor name="SC NECSYS SRL"
#  country="ro"
#  URL="http://www.necsys.ro"
#  email="office@necsys.ro"
#  phone="+40 742 639 109"
#  ship="no"
#  smail="SC NECSYS SRL<br />
#  Str. poligonului BI. B11 Ap.15<br />
#  Alba Iulia<br />
#  <country-name RO>" />

#</country>


############################################
## Slovakia (.sk)
############################################

<country code="sk" name="<country-name SK>">

<vendor name="PD Software s.r.o,"
  country="sk"
 URL="http://www.pdsoftware.eu"
 email="info@pdsoftware.eu"
 phone="033 7729 411"
 fax="033 7729 411"
 ship="no"
 smail="PD Software s.r.o.<br />
Bodona 74<br />
Piestany 921 01<br />
<country-name SK>" />

</country>


############################################
## South Africa (.za)
############################################

<country code="za" name="<country-name ZA>">

# No longer operating:
# https://lists.debian.org/BC0C8CF3AD3E874098C14F20C620537D0167002387@TRAMX.tra.local
#<vendor name="Goldencreations Debian Store"
#  country="za"
# URL="http://debian.goldencreations.co.za"
# email="sales@debian.goldencreations.co.za"
# phone="+27 041 457 5808"
# ship="no"
# smail="Linux OS Online Store <br />
#512 Govenmbeki ave northend <br />
#<country-name ZA>" />

<vendor name="Radiant Networks (Pty) Ltd"
  country="za"
 URL="https://www.radiantnet.co.za/"
 email="sales@radiantnet.co.za"
 phone="+27 82 403 80 64"
 fax="+27 86 605 8197"
 ship="yes"
 smail="Radiant Networks (Pty) Ltd<br />
P.O. Box 15594<br />
Lyttelton, Gauteng 0140<br />
<country-name ZA>" />

</country>


############################################
## Spain (.es)
############################################

<country code="es" name="<country-name ES>">

<vendor name="Advanced Software Production Line, S.L."
  country="es"
 URL="https://www.aspl.es/"
 email="info@aspl.es"
 phone="+34 91 134 14 22"
 smail="Advanced Software Production Line, S.L.<br />
 Oficina 102, Edificio Alius A<br />
 C/ Antonio Suarez N&ordm;10<br />
 28802 Alcal&aacute; de Henares<br />
 Madrid" />

<vendor name="GNUinos 2004 SL"
  country="es"
  URL="http://www.gnuinos.com/"
  email="info@gnuinos.com"
  phone="93 244 46 50"
  fax="93 511 49 16"
  ship="no"
  smail="GNUinos<br/>
Ausi&agrave;s Marc, 56<br/>
08010 Barcelona" />

<vendor name="GPOC"
  country="es"
 URL="http://www.gpoc.es"
 email="salo@gpoc.es"
 phone="93 449 77 55"
 ship="no"
 smail="C/ Juventud, 106, 4<br />
 08904 Hospitalet de Llobregat<br />
 Barcelona (<country-name ES>)" />

#<vendor name="Inforreg Maella, SL"
#  country="es"
# URL="http://linuxocasion.net"
# email="comercial@inforreg.es"
# phone="34 976639232"
# ship="yes"
# smail="Inforreg, SL.<br />
# Francisco Goya, 10<br />
# 50710 Maella<br />
# Zaragoza, <country-name ES>" />

<vendor name="InsMas"
  country="es"
  URL="https://insmas.com/"
  email="insmas@insmas.com"
  phone="937 727 031"
  ship="no"
  smail="InsMas<br />
  C/Major, 113, 2o<br />
  08783 Masquefa<br />
  Barcelona, <country-name ES>" />

  
# last check: mail from them on 2020/06/14, update address
<vendor name="Librebit"
  country="es"
   URL="https://www.librebit.com/"
   email="info@librebit.com"
   phone="+34 886 122 307"
   ship="yes"
   smail="Librebit<br />
   Calle Uruguay 15, Entresuelo B<br />
   36201 Vigo - Pontevedra" />

<vendor name="SLIMBOOK"
  country="es"
  URL="https://slimbook.es"
  email="info@slimbook.es"
  phone="+41 902 602 624"
  ship="yes"
  smail="SLIMBOOK <br />
  46001 Valencia <br />
  Comunidad Valenciana <br />
  <country-name ES>" />

</country>


############################################
## Switzerland (.ch)
############################################

<country code="ch" name="<country-name CH>">

<vendor name="FOX Elektronix - Fux"
  country="ch"
 URL="http://www.asimplecomputer.com"
 email="contact@asimplecomputer.com"
 phone="+41787684260"
 ship="yes"
 smail="FOX Elektronix - Fux<br />
 Dorfstrasse 108<br />
 3911 Ried-Brig<br />
 <country-name CH>" />

<vendor name="lixenis.com"
  country="ch"
 URL="https://www.lixenis.com/"
 email="info@lixenis.com"
 phone="+41 41 420 50 30"
 fax="+41 41 422 10 51"
 ship="yes"
 smail="lixenis.com<br />
Wescom GmbH<br />
Wesemlinstrasse 37<br />
CH-6006 Luzern<br />
<country-name CH>" />

<vendor name="revamp-it!"
  country="ch"
  URL="https://www.revamp-it.ch/index.php/en/"
  email="empfang@revamp-it.ch"
  phone="+41 43 960 32 64"
  ship="yes"
  smail="revamp-it!<br />
  Roeschibachstr. 24-26<br />
  8037 Zurich<br />
  <country-name CH>" />

#<vendor name="Panthera Systems"
#  country="ch"
#   URL="http://www.panthera-systems.net/"
#   email="info@panthera-systems.net"
#   phone="+41 32 672 40 91"
#   fax="+41 32 672 43 64"
#   ship="yes"
#   smail="Panthera Systems<br/>
# Burgunderstrasse 3<br/>
# CH-4562 Biberist" />

</country>


############################################
## United Kingdom (.uk)
############################################

<country code="gb" name="<country-name GB>">

<vendor name="Angelfish-it.co.uk"
  country="gb"
  URL="http://www.angelfish-it.co.uk"
  email="support@angelfish-it.co.uk"
  ship="yes"
  smail"76 Attleborough Rd<br />
  Nuneaton<br />
  Warwickshire<br />
  CV11 5BX<br />
  <country-name GB>" />

<vendor name="Zeta Storage Systems Ltd"
  country="gb"
  URL="http://www.zeta.systems/"
  email="sales@zeta.systems"
  phone="0161 366 6600"
  fax="0161 366 6602"
  ship="no"
  smail="Zeta Storage Systems Ltd<br />
  Unit 1, Kingston Mills<br />
  Manchester Road<br />
  Hyde<br />
  Cheshire<br />
  SK14 2BZ<br />
  <country-name GB>" />

<vendor name="Bargain Hardware"
  country="gb"
  URL="https://www.bargainhardware.co.uk"
  email="sales@bargainhardware.co.uk"
  phone="+44 1254 878 801"
  ship="yes"
  smail="Bargain Hardware<br />
  Bee Mill<br />
  Preston Road<br />
  Ribchester<br />
  PR3 3XL<br />
  <country-name GB>" />

</country>


############################################
## United States, USA (.us)
############################################

<country code="us" name="<country-name US>">

<vendor name="AdoraDeal LLC"
  country="us"
  URL="https://www.adoradeal.com/"
  email="info@adoradeal.com"
  phone="619-377-7673"
  ship="no" />

<vendor name="AVADirect Custom Computers"
  country="us"
 URL="https://www.avadirect.com/"
 email="sales@avadirect.com"
 phone="1-866-766-4629"
 ship="no"
 smail="AVADirect Custom Computers<br />
1750 Highland Rd. Suite #4<br />
Twinsburg, OH 44087<br />
<country-name US>" />

<vendor name="California Digital"
  country="us"
  URL="http://www.californiadigital.com/"
  email="sales@californiadigital.com"
  phone="+1 888 LINUX-4U (+1 888 546-8948), +1 (510) 651-8811"
  fax="+1 (510) 651-8844"
  smail="California Digital<br />
47071 Bayside Parkway<br />
Fremont, CA 94538<br />
<country-name US>" />

<vendor name="CT Quantum CCSvc"
  country="us"
  URL="https://www.ctquantum.com/"
  email="support@ctquantum.com"
  phone="+1 (401) 244-5855"
  ship="yes" />

<vendor name="CurrentBuild Computer"
  country="us"
  URL="https://www.currentbuild.com/"
  email="kamil@currentbuild.com"
  phone="310-828-6064"
  fax="310-828-6064"
  ship="yes"
  smail="CurrentBuild Computer<br />
1934 Idaho Avenue<br />
Santa Monica<br />
CA 90403<br />
<country-name US>" />

<vendor name="EmperorLinux"
  country="us"
  URL="http://www.EmperorLinux.com/"
  email="laptops@EmperorLinux.com"
  phone="+1-888-651-6686"
  fax="+1-770-612-1210"
  ship="yes"
  smail="EmperorLinux<br />
900 Circle 75 Pkwy,<br />
Suite 1380<br />
Atlanta, GA 30339<br />
<country-name US>" />

<vendor name="eRacks Open Source Systems"
  country="us"
  URL="https://eracks.com/"
  email="info@eracks.com"
  phone="+1 (714) 758-5423"
  fax="+1 631 392 9842"
  ship="yes"
  smail="eRacks Open Source Systems<br />
4035 Clipper Court<br />
Fremont, California 94538<br />
<country-name US>" />

<vendor name="Future CIS, Corp."
  country="us"
  URL="https://www.futurecis.com/"
  email="po@futurecis.com"
  phone="(240)580-FCIS(3247)"
  ship="no"
  smail="Future CIS, Corp.<br />
2352 Battery Hill Circle<br />
Woodbridge, VA 22191<br />
<country-name US>" />

<vendor name="InaTux"
  country="us"
  URL="http://inatux.com/"
  email="inatux@inatux.com"
  ship="yes" />

<vendor name="Iron Systems, Inc"
  country="us"
  URL="http://www.ironsystems.com/"
  email="Sales@ironsystems.com"
  phone="408-943-8000"
  fax="408-943-8222"
  ship="yes"
  smail="Iron Systems, Inc<br />
2330 Kruse Drive<br />
San Jose CA 95131<br />
<country-name US>" />

<vendor name="Island Computers US Corporation"
  country="us"
  URL="http://www.islandco.com/"
  email="sales@islandco.com"
  phone="912 786 8501"
  fax="912 786 8505"
  ship="yes"
  smail="Island Computers US Corporation<br />
  PO BOX 86<br />
  Tybee GA 31328" />

#<vendor name="Linux-1U.net"
#  country="us"
#  URL="http://Linux-1U.net/"
#  email="Info@Linux-1U.net"
#  phone="+1 408-98-Linux"
#  ship="yes"
#  smail="1U Ring Inc dba Linux-1U.net<br/>
#P.O. Box 70968<br/>
#Sunnyvale, CA  94086<br/>
#<country-name US>" />

#<vendor name="LinuxCertified, Inc."
#  country="us"
#  URL="http://www.linuxcertified.com/"
#  email="info@linuxcertified.com"
#  phone="+1 408 314 6700"
#  ship="yes"
#  smail="LinuxCertified, Inc.<br/>
#1072 S. De Anza Blvd. #A107-19<br/>
#San Jose, CA 95129<br/>
#<country-name US>" />

<vendor name="LAC Portland"
  country="us"
  URL="https://lacpdx.com/"
  email="sales@lacpdx.com"
  phone="+1 971-236-2718"
  ship="yes"
  smail="LAC Portland<br />
21370 SW Langer Farms Pkwy<br />
Suite 142 #229<br />
Sherwood OR 97140<br />
<country-name US>" />

#<vendor name="Microway, Inc"
#  country="us"
#  URL="http://www.microway.com/"
#  email="sales@microway.com"
#  phone="+1 508-746-7341"
#  fax="+1 508-746-4678"
#  ship="yes"
#  smail="Microway, Inc<br/>
#12 Richards Rd<br/>
#Plymouth, MA 02360<br/>
#<country-name US>" />

#<vendor name="Open Sense Solutions LLC"
#  country="us"
#  URL="http://opensensesolutions.com/products.html"
#  email="info@opensensesolutions.com"
#  phone="+1 888-323-1742"
#  ship="no"
#  smail="Open Sense Solutions LLC<br/>
#2693 Texas Hill Rd.<br/>
#Hinesburg VT 05461<br/>
#<country-name US>" />

<vendor name="Psychsoftpc"
  country="us"
  URL="http://www.psychsoftpc.com/"
  email="sales@psychsoftpc.com"
  phone="617-471-8733"
  ship="no"
  smail="Psychsoftpc<br />
Quincy, MA 02171<br />
<country-name US>" />

#<vendor name="Sean Brady, LLC"
#  country="us"
# URL="http://www.seanbrady.us"
# email="sales@seanbrady.us"
# phone="+1 (256) 277-3579"
# ship="yes"
# smail="Sean Brady, LLC<br />
#95 S. Interlaken Dr.<br />
#Madison, AL 35758<br />
#<country-name US>" />

<vendor name="StoreAnyWhere.com Inc."
  country="us"
  URL="http://www.storeanywhere.com/"
  email="sales@storeanywhere.com"
  phone="+1 (718) 934-7313"
  fax="+1 (718) 934-7305"
  ship="yes"
  smail="StoreAnyWhere.com Inc.<br />
1816 Gravesend Neck Rd., (Bet. E18 &amp; E19th St.)<br />
Brooklyn, NY 11229<br />
<country-name US>" />

<vendor name="SW Technology"
  country="us"
  URL="https://www.swt.com/"
  email="sales@swt.com"
  phone="+1 (972) 907 0871"
  fax="+1 (972) 907 9339"
  ship="no"
  smail="SW Technology<br />
876 N. Glenville Drive<br />
Richardson, TX 75081<br />
<country-name US>" />

<vendor name="ThinkPenguin, Inc"
  country="us"
  URL="https://www.thinkpenguin.com/"
  email="sales@thinkpenguin.com"
  phone="1-888-39-THINK (84465)"
  ship="yes"
  smail="ThinkPenguin<br />
203 Main St #325<br />
Flemington<br />
NJ 08822<br />
<country-name US>" />

# last check: mail from them on 2020/07/23, update data

<vendor name="ZaReason"
  country="us"
  URL="http://www.zareason.com/"
  email="info@zareason.com"
  phone="510 868 5000"
  ship="no"
  smail="ZaReason<br />
240 West Nepessing St<br />
Lapeer, MI 48446<br />
<country-name US>" />

</country>
