<define-tag pagetitle>DSA-4696-1 nodejs</define-tag>
<define-tag report_date>2020-6-06</define-tag>
<define-tag secrefs>CVE-2020-8174 CVE-2020-11080 Bug#962145</define-tag>
<define-tag packages>nodejs</define-tag>
<define-tag isvulnerable>yes</define-tag>
<define-tag fixed>yes</define-tag>
<define-tag fixed-section>no</define-tag>

#use wml::debian::security



</dl>
