<define-tag pagetitle>DLA-1051-1 postgresql-9.1</define-tag>
<define-tag report_date>2017-8-10</define-tag>
<define-tag secrefs>CVE-2017-7486 CVE-2017-7546 CVE-2017-7547</define-tag>
<define-tag packages>postgresql-9.1</define-tag>
<define-tag isvulnerable>yes</define-tag>
<define-tag fixed>yes</define-tag>
<define-tag fixed-section>no</define-tag>

#use wml::debian::security

