<define-tag pagetitle>DLA-1698-1 file</define-tag>
<define-tag report_date>2019-02-28</define-tag>
<define-tag secrefs>CVE-2019-8905 CVE-2019-8907</define-tag>
<define-tag packages>file</define-tag>
<define-tag isvulnerable>yes</define-tag>
<define-tag fixed>yes</define-tag>
<define-tag fixed-section>no</define-tag>

#use wml::debian::security

