<define-tag pagetitle>DLA-694-1 libwmf</define-tag>
<define-tag report_date>2016-11-2</define-tag>
<define-tag secrefs>CVE-2016-9011 Bug#842090</define-tag>
<define-tag packages>libwmf</define-tag>
<define-tag isvulnerable>yes</define-tag>
<define-tag fixed>yes</define-tag>
<define-tag fixed-section>no</define-tag>

#use wml::debian::security

