<define-tag pagetitle>DLA-560-1 cacti</define-tag>
<define-tag report_date>2016-7-25</define-tag>
<define-tag secrefs>CVE-2016-2313 CVE-2016-3172 CVE-2016-3659</define-tag>
<define-tag packages>cacti</define-tag>
<define-tag isvulnerable>yes</define-tag>
<define-tag fixed>yes</define-tag>
<define-tag fixed-section>no</define-tag>

#use wml::debian::security

