#include "$(ENGLISHDIR)/partners/partners.def"

<partnertable>

# <typeofpartner <partnerofthemonth>>

# <div>
# <partnerlogo "Oregon State University Open Source Lab" osuosl.png "https://osuosl.org/">
# # last update: 2017/06/23 (new logo)
# # partner of the month 20170812 - 
# <partnerdesc>
# <osuosl1>
# <osuosl2>
# </partnerdesc>
# </div>
#
# <hr>
 
 <typeofpartner <alphabeticallist>>

 <div id="oneandone">
 <partnerlogo "1und1" 1und1.png "http://www.1und1.de">
 <partnerdesc>
 <oneandone1>
 <oneandone2>
 </partnerdesc>
 </div>
 
 <hr>
 
<div id="Ampere">
 <partnerlogo "Ampere" ampere.jpg "https://amperecomputing.com">
 <partnerdesc>
 <ampere1>
 <ampere2>
 </partnerdesc>
 </div>
 
 <hr>

 <div id="Bytemark">
 <partnerlogo "Bytemark" bytemark_logo.svg "http://www.bytemark.co.uk">
 # last update: 2020/08/22 (new location)
 <partnerdesc>
 <bytemark1>
 <bytemark2>
 </partnerdesc>
 </div>

 <hr>
 
 <div id="conova">
 <partnerlogo "conova" conova.png "https://www.conova.com">
 # date added: 2017/05/02
 # last update: 2017/05/02
 <partnerdesc>
 <conova1>
 <conova2>
 </partnerdesc>
 </div>

 <hr>

 <div id="credativ">
 <partnerlogo "credativ GmbH" credativ.png "https://www.credativ.com/">
 <partnerdesc>
 <credativ1>
 <credativ2>
 </partnerdesc>
 </div>

 <hr>
 
 <div id="DG-i">
 <partnerlogo "DG-i" dgi_logo.png "https://www.dg-i.net/">
 <partnerdesc>
 <dg-i1>
 <dg-i2>
 </partnerdesc>
 </div>

 <hr>
 
 <div id="Eaton">
 <partnerlogo "Eaton" logo_eaton.png "https://www.eaton.com/">
 <partnerdesc>
 <eaton1>
 <eaton2>
 </partnerdesc>
 </div>

 <hr>
 
 <div id="Fastly">
 <partnerlogo "Fastly" fastly.png "https://www.fastly.com">
 # last update: 2017/11/25 (New addition)
 <partnerdesc>
 <fastly1>
 <fastly2>
 </partnerdesc>
 </div>
 
 <hr>
 
 <div id="Genesi">
 <partnerlogo "Genesi" genesi-logo.png "http://www.genesi.company/">
 # last update: 2020/08/22 (Genesi URL change)
 <partnerdesc>
 <genesi1>
 <genesi2>
 </partnerdesc>
 </div>
 
 <hr>

 <div id="Google">
 <partnerlogo "Google" google.svg "https://www.google.com/">
 # last update: 2019/03/20 (new addition)
 <partnerdesc>
 <google1>
 <google2>
 </partnerdesc>
 </div>

<hr>
   
 <div id="HPE">
 <partnerlogo "HPE" hpe.png "https://developer.hpe.com/projects">
 # last update: 2020/08/22 (URL change)
 <partnerdesc>
 <hpe1>
 <hpe2>
 </partnerdesc>
 </div>

 <hr>
  
 <div id="LeaseWeb">
 <partnerlogo "LeaseWeb" logo_leaseweb.png "https://www.leaseweb.com/">
  # date added: 2017/05/20
  # last update: 2017/05/20
 <partnerdesc>
 <leaseweb1>
 <leaseweb2>
 </partnerdesc>
 </div>

 <hr>

 <div id="Loongson">
 <partnerlogo "Loongson" loongson.png "http://www.loongson.cn/index.html">
 <partnerdesc>
 <loongson1>
 <loongson2>
 </partnerdesc>
 </div>

 <hr>
   
 <div id="man-da">
 <partnerlogo "Metropolitan Area Network Darmstadt" manda_logo.png "http://www.man-da.de/">
 <partnerdesc>
 <man-da1>
 <man-da2>
 </partnerdesc>
 </div>

 <hr>
  
 <div id="osuosl">
 <partnerlogo "Oregon State University Open Source Lab" osuosl.png "https://osuosl.org/">
 # last update: 2017/06/23 (new logo)
 # partner of the month 20170812 - November 2017
 <partnerdesc>
 <osuosl1>
 <osuosl2>
 </partnerdesc>
 </div>

 <hr>
 
 <div id="RcodeZeroDNS">
 <partnerlogo "RcodeZeroDNS" rcodezerodns.png "https://www.rcodezero.at/">
 <partnerdesc>
 <rcodezerodns1>
 <rcodezerodns2>
 </partnerdesc>
 </div>

 <hr>
 
 <div id="Skolelinux">
 <partnerlogo "Skolelinux" skolelinux.png "https://www.skolelinux.org/">
 <partnerdesc>
 <skolelinux1>
 <skolelinux2>
 </partnerdesc>
 </div>

 <hr>

 <div id="StackPath">
 <partnerlogo "StackPath" stackpath-logo-reversed.svg "https://www.stackpath.com/?utm_campaign=Partner%20Display&amp;utm_source=Partner%20Display&amp;utm_medium=Debian">
 <partnerdesc>
 <stackpath1>
 <stackpath2>
 </partnerdesc>
 </div>

 <hr>
 
 <div id="Telegraaf">
 <partnerlogo "Telegraaf Media ICT BV" tmi_logo.png "https://www.telegraaf.nl/">
 <partnerdesc>
 <telegraaf1>
 <telegraaf2>
 <telegraaf3>
 </partnerdesc>
 </div>

 <hr>
 
 <div id="Thomas-Krenn">
 <partnerlogo "Thomas-Krenn.AG" thomas-krenn.png "https://www.thomas-krenn.com/">
 <partnerdesc>
 <thomaskrenn1>
 <thomaskrenn2>
 </partnerdesc>
 </div>

 <hr>

 <div id="trustsec"> 
 <partnerlogo "trustsec IT solutions GmbH" trustsec.png "https://www.trustsec.de/">
 <partnerdesc>
 <trustsec1>
 <trustsec2>
 </partnerdesc>
 </div>
 
 <hr>
 
 <div id="wellcome"> 
 <partnerlogo "Wellcome Sanger Institute" wellcome_sanger.png "https://www.sanger.ac.uk/">
 <partnerdesc>
 <wellcome1>
 <wellcome2>
 </partnerdesc>
 </div>

</partnertable>
